%YAML 1.1
%TAG !u! tag:unity3d.com,2011:
--- !u!114 &11400000
MonoBehaviour:
  m_ObjectHideFlags: 0
  m_CorrespondingSourceObject: {fileID: 0}
  m_PrefabInstance: {fileID: 0}
  m_PrefabAsset: {fileID: 0}
  m_GameObject: {fileID: 0}
  m_Enabled: 1
  m_EditorHideFlags: 0
  m_Script: {fileID: 11500000, guid: 2136a598822d40e40975bb7baa279bf1, type: 3}
  m_Name: SubScenario_SourWaterPump
  m_EditorClassIdentifier: 
  SubScenarioName: Preparasi Sour Water Pump
  SubScenarioSprite: {fileID: 21300000, guid: 1009fd5a44898664c8e11f64726e0a16, type: 3}
  SubScenarioScene:
    m_AssetGUID: f4373e3105f991443844c25461a95dcf
    m_SubObjectName: 
    m_SubObjectType: 
  SubScenarioPrefab:
    m_AssetGUID: 74849b209fd66ac418111c8cc6e6f714
    m_SubObjectName: 
    m_SubObjectType: 
  isLinear: 1
  isSandbox: 1
