%YAML 1.1
%TAG !u! tag:unity3d.com,2011:
--- !u!114 &11400000
MonoBehaviour:
  m_ObjectHideFlags: 0
  m_CorrespondingSourceObject: {fileID: 0}
  m_PrefabInstance: {fileID: 0}
  m_PrefabAsset: {fileID: 0}
  m_GameObject: {fileID: 0}
  m_Enabled: 1
  m_EditorHideFlags: 0
  m_Script: {fileID: 11500000, guid: dc30735a6f974fda88a33f70e2b17a3b, type: 3}
  m_Name: UIPoseB
  m_EditorClassIdentifier: 
  SnappedLeft: 0
  LeftHand:
    Position: {x: 0.0094, y: -0, z: -0.0194}
    Rotation: {x: 0.18811136, y: 0.06689033, z: -0.68162644, w: -0.70393556}
    Thumb:
      Bones:
      - Position: {x: 0.026298406, y: -0.041470297, z: 0.020564148}
        Rotation: {x: 0.46442032, y: 0.83775795, z: 0.2023785, w: 0.20376062}
      - Position: {x: -0.03258824, y: 0, z: 0}
        Rotation: {x: -0.08321629, y: 0.06902809, z: -0.014113213, w: 0.99403775}
      - Position: {x: -0.026371535, y: 1.4210854e-16, z: -1.0658141e-16}
        Rotation: {x: 0.08404227, y: -0.06749661, z: 0.09016284, w: 0.9900767}
    Index:
      Bones:
      - Position: {x: 0.087078705, y: -0.035099912, z: -0.0068139634}
        Rotation: {x: -0.20140103, y: 0.6830571, z: 0.6806516, w: 0.17200007}
      - Position: {x: -0.04157472, y: 0, z: 7.105427e-17}
        Rotation: {x: -0.024104403, y: -0.00899586, z: -0.5758414, w: 0.8171565}
      - Position: {x: -0.022153005, y: 7.105427e-17, z: 0}
        Rotation: {x: -0.017122893, y: 0.01856666, z: -0.35229075, w: 0.93554974}
    Middle:
      Bones:
      - Position: {x: 0.09142233, y: -0.0095321555, z: -0.010838781}
        Rotation: {x: -0.3432613, y: 0.6030364, z: 0.69694376, w: 0.18107511}
      - Position: {x: -0.045967426, y: 1.4210854e-16, z: 7.105427e-17}
        Rotation: {x: -0.012944842, y: -0.0022546973, z: -0.5293402, w: 0.8483079}
      - Position: {x: -0.029590597, y: 3.5527136e-17, z: 0}
        Rotation: {x: -0.0759877, y: -0.015229128, z: -0.36053377, w: 0.929521}
    Ring:
      Bones:
      - Position: {x: 0.089531735, y: 0.012713979, z: -0.0018533266}
        Rotation: {x: -0.3533139, y: 0.58264, z: 0.7146583, w: 0.1579982}
      - Position: {x: -0.038572025, y: 0, z: 7.105427e-17}
        Rotation: {x: -0.041444182, y: -0.0131877875, z: -0.47192255, w: 0.88056666}
      - Position: {x: -0.025775291, y: -1.7763568e-17, z: -1.4210854e-16}
        Rotation: {x: -0.020650413, y: -0.029090362, z: -0.3471946, w: 0.93711436}
    Pinky:
      Bones:
      - Position: {x: 0.031271502, y: 0.01906803, z: 0.01150759}
        Rotation: {x: -0.46932158, y: -0.083111495, z: 0.08672836, w: 0.8748188}
      - Position: {x: 0.053570647, y: 0.0024384, z: -0.0014630399}
        Rotation: {x: -0.21053928, y: 0.17096463, z: 0.9341354, w: 0.23202473}
      - Position: {x: -0.03335595, y: 1.4210854e-16, z: -1.4210854e-16}
        Rotation: {x: -0.064667165, y: 0.027818287, z: -0.31809118, w: 0.9454429}
      - Position: {x: -0.017418223, y: 1.3322676e-16, z: 7.105427e-17}
        Rotation: {x: 0.0015894901, y: -0.047330003, z: -0.25693116, w: 0.96526873}
  RightHand:
    Position: {x: 0.017, y: -0, z: 0.0229}
    Rotation: {x: -0.6978342, y: 0.70705247, z: 0.11413727, w: 0.008774328}
    Thumb:
      Bones:
      - Position: {x: -0.026298406, y: 0.041470297, z: -0.020564148}
        Rotation: {x: 0.46442032, y: 0.83775795, z: 0.2023785, w: 0.20376062}
      - Position: {x: 0.03258824, y: 0, z: 0}
        Rotation: {x: -0.08321629, y: 0.06902809, z: -0.014113213, w: 0.99403775}
      - Position: {x: 0.026371535, y: -1.4210854e-16, z: 1.0658141e-16}
        Rotation: {x: 0.08395738, y: -0.06708067, z: 0.08475998, w: 0.99058926}
    Index:
      Bones:
      - Position: {x: -0.087078705, y: 0.035099912, z: 0.0068139634}
        Rotation: {x: -0.20140103, y: 0.6830571, z: 0.6806516, w: 0.17200007}
      - Position: {x: 0.04157472, y: 0, z: -7.105427e-17}
        Rotation: {x: -0.024104403, y: -0.00899586, z: -0.5758414, w: 0.8171565}
      - Position: {x: 0.022153005, y: -7.105427e-17, z: 0}
        Rotation: {x: -0.017122893, y: 0.01856666, z: -0.35229075, w: 0.93554974}
    Middle:
      Bones:
      - Position: {x: -0.09142233, y: 0.0095321555, z: 0.010838781}
        Rotation: {x: -0.32312357, y: 0.61292666, z: 0.70180184, w: 0.16548827}
      - Position: {x: 0.045967426, y: -1.4210854e-16, z: -7.105427e-17}
        Rotation: {x: -0.012953989, y: -0.0018484765, z: -0.50002754, w: 0.86591065}
      - Position: {x: 0.029590597, y: -3.5527136e-17, z: 0}
        Rotation: {x: -0.07392815, y: -0.014121783, z: -0.33529624, w: 0.9391015}
    Ring:
      Bones:
      - Position: {x: -0.089531735, y: -0.012713979, z: 0.0018533266}
        Rotation: {x: -0.34016824, y: 0.5904776, z: 0.71829855, w: 0.14024624}
      - Position: {x: 0.038572025, y: 0, z: -7.105427e-17}
        Rotation: {x: -0.041271497, y: -0.012415584, z: -0.4498985, w: 0.8920392}
      - Position: {x: 0.025775291, y: 1.7763568e-17, z: 1.4210854e-16}
        Rotation: {x: -0.01982176, y: -0.029198559, z: -0.32887626, w: 0.9437134}
    Pinky:
      Bones:
      - Position: {x: -0.031271502, y: -0.01906803, z: -0.01150759}
        Rotation: {x: -0.46932158, y: -0.083111495, z: 0.08672836, w: 0.8748188}
      - Position: {x: -0.053570647, y: -0.0024384, z: 0.0014630399}
        Rotation: {x: -0.233619, y: 0.1832971, z: 0.9490722, w: 0.105291925}
      - Position: {x: 0.03335595, y: -1.4210854e-16, z: 1.4210854e-16}
        Rotation: {x: -0.054746132, y: 0.034249015, z: -0.18999176, w: 0.9796597}
      - Position: {x: 0.017418223, y: -1.3322676e-16, z: -7.105427e-17}
        Rotation: {x: 0.0026065244, y: -0.0394676, z: -0.58453983, w: 0.8104004}
