%YAML 1.1
%TAG !u! tag:unity3d.com,2011:
--- !u!114 &11400000
MonoBehaviour:
  m_ObjectHideFlags: 0
  m_CorrespondingSourceObject: {fileID: 0}
  m_PrefabInstance: {fileID: 0}
  m_PrefabAsset: {fileID: 0}
  m_GameObject: {fileID: 0}
  m_Enabled: 1
  m_EditorHideFlags: 0
  m_Script: {fileID: 11500000, guid: b1c0a89d7d034b64d871d18d79ac6b71, type: 3}
  m_Name: RandomInstruction
  m_EditorClassIdentifier: 
  instructions:
  - title: Sour Water Pump
    image: {fileID: 21300000, guid: d953e0d905c039045aa25dd6aadb2df5, type: 3}
    content: Anda akan melalui tutorial singkat tentang menjalankan skenario Sour
      Water Pump.
  - title: Circulation Co-Boiler Pump - Persiapan
    image: {fileID: 21300000, guid: d953e0d905c039045aa25dd6aadb2df5, type: 3}
    content: Anda akan melalui tutorial singkat tentang menjalankan skenario Sour
      Water Pump.
  - title: Circulation Co-Boiler Pump - Starting
    image: {fileID: 21300000, guid: d953e0d905c039045aa25dd6aadb2df5, type: 3}
    content: Anda akan melalui tutorial singkat tentang menjalankan skenario Sour
      Water Pump.
  - title: Panel Instruksi
    image: {fileID: 21300000, guid: da4bfb3d2ebcece4fb3cdcc832968816, type: 3}
    content: 'Ikuti langkah-langkah pada panel instruksi untuk menyelesaikan skenario.


      Panel
      instruksi dapat diambil dan dipegang layaknya alat dan benda lainnya.'
  - title: Penggunaan Alat
    image: {fileID: 21300000, guid: 42a3f78985a173b42a4d3e0e95cc256c, type: 3}
    content: Pada skenario ini, akan digunakan alat A, B, dan C. Alat A dapat diaktivasi
      dengan menekan tombol pemicu.
  - title: Menu
    image: {fileID: 21300000, guid: 95a92aa6db338704eac158a6ccfaae74, type: 3}
    content: Tekan tombol Y pada controller kiri untuk membuka menu.
  - title: Mode Practice
    image: {fileID: 21300000, guid: d28fe3f0f20226047a0cb0fcac14a2b8, type: 3}
    content: "Pada mode practice tidak ada scoring, sehingga Anda dapat berlatih
      dengan kecepatan Anda sendiri dan tidak perlu takut untuk membuat\rkesalahan."
  - title: Mode Challenge
    image: {fileID: 21300000, guid: d28fe3f0f20226047a0cb0fcac14a2b8, type: 3}
    content: Pada mode tes, terdapat penilaian berdasarkan lama dan ketepatan dalam
      pengerjaan.
