%YAML 1.1
%TAG !u! tag:unity3d.com,2011:
--- !u!114 &11400000
MonoBehaviour:
  m_ObjectHideFlags: 0
  m_CorrespondingSourceObject: {fileID: 0}
  m_PrefabInstance: {fileID: 0}
  m_PrefabAsset: {fileID: 0}
  m_GameObject: {fileID: 0}
  m_Enabled: 1
  m_EditorHideFlags: 0
  m_Script: {fileID: 11500000, guid: 93e35967d69caf544b0723989b890e2b, type: 3}
  m_Name: BoltTest _Plier
  m_EditorClassIdentifier: 
  meshList:
  - {fileID: 6320361774921270629, guid: a5556ed177d33cd4db58ad343307ab60, type: 3}
  meshScaleList:
  - {x: 1, y: 1.0000002, z: 1.0000002}
  meshPosList:
  - {x: 0, y: 0, z: 0}
  meshRotList:
  - {x: -0, y: -0, z: -0, w: 1}
